{
  "action": "joinGame",
  "gameID": 9,
  "boards": [
    {
      "id": 0,
      "player": {
        "id": "EHechYemZyCcbfJc_eLb3hEnH2qbDz1r5rDbilnZ"
      },
      "flagAmount": 0,
      "score": 0,
      "position": 0,
      "lives": 2,
      "hits": 2
    }
  ]
}