{
    "action": "minelistUpdate",
    "gameID": 10,
    "minelist": [
        {"x": 6, "y": 7},
        {"x": 5, "y": 1},
        {"x": 2, "y": 5},
        {"x": 7, "y": 6}, 
        {"x": 3, "y": 1},
        {"x": 6, "y": 1},
        {"x": 6, "y": 0},
        {"x": 3, "y": 3},
        {"x": 4, "y": 1},
        {"x": 8, "y": 8}
    ]
}